<svg width="24" height="24" viewBox="0 0 24 24" fill="none" xmlns="http://www.w3.org/2000/svg">
<g clip-path="url(#clip0_572_265)">
<path d="M6.89975 3.31322C7.17143 3.03996 7.45871 2.78712 7.75947 2.55612C8.26806 2.16548 8.81538 1.83736 9.39178 1.57878C10.4347 1.11101 11.5519 0.880338 12.6768 0.900406C13.8017 0.920511 14.9115 1.19096 15.9402 1.69574C16.5089 1.97476 17.0465 2.32226 17.5434 2.73084C17.8373 2.97246 18.1169 3.23544 18.3805 3.51826C18.3893 3.52753 18.3981 3.53636 18.4073 3.54467C18.5688 3.69156 18.8065 3.69192 18.9612 3.53119C19.1247 3.36138 19.1336 3.07607 18.9732 2.90255L18.9452 2.87227C18.667 2.57392 18.3726 2.29567 18.0638 2.0391C17.5085 1.57782 16.9066 1.18642 16.2689 0.873527C15.1406 0.319962 13.9236 0.023368 12.6899 0.00132213C11.4561 -0.0206871 10.231 0.232291 9.08732 0.74528C8.44085 1.03525 7.82782 1.40494 7.25948 1.84615C6.94325 2.09158 6.6409 2.35913 6.35428 2.64742L6.32533 2.67671C6.16008 2.84436 6.1606 3.12986 6.31912 3.30542C6.46904 3.47157 6.7066 3.4797 6.87225 3.33868C6.88164 3.33066 6.8909 3.3222 6.89975 3.31322Z" fill="#D3490D"/>
<path fill-rule="evenodd" clip-rule="evenodd" d="M2.25294 13.2H4.52314L0.0291503 0.754032C-0.0541378 0.523283 0.0471299 0.261405 0.255482 0.169083C0.463702 0.0767616 0.700082 0.189005 0.78337 0.419755L5.33751 13.0329C5.3457 13.0555 5.35205 13.0783 5.35668 13.1013C5.36342 13.1342 5.36672 13.1673 5.36672 13.2H18.676C18.6779 13.1509 18.6871 13.1012 18.7043 13.0529L23.2161 0.421293C23.2986 0.190214 23.5346 0.0770179 23.7432 0.168461C23.9517 0.25994 24.0539 0.521415 23.9714 0.752494L19.5253 13.2H22.8301C23.4282 13.2 23.9131 13.7373 23.9131 14.4V21C23.9131 21.6628 23.4282 22.2 22.8301 22.2H22.0179V23.55C22.0179 23.7985 21.8361 24 21.6117 24C21.3874 24 21.2056 23.7985 21.2056 23.55V22.2H4.68971V23.55C4.68971 23.7985 4.50793 24 4.28358 24C4.05923 24 3.87745 23.7985 3.87745 23.55V22.2H2.25294C1.65485 22.2 1.16993 21.6628 1.16993 21V14.4C1.16993 13.7373 1.65485 13.2 2.25294 13.2ZM22.8301 14.1H2.25294C2.10342 14.1 1.98219 14.2343 1.98219 14.4V21C1.98219 21.1657 2.10342 21.3 2.25294 21.3H22.8301C22.8974 21.3 22.959 21.2728 23.0063 21.2276C23.0642 21.1726 23.1009 21.091 23.1009 21V14.4C23.1009 14.2343 22.9796 14.1 22.8301 14.1Z" fill="#D3490D"/>
<path d="M9.74979 4.5308C9.40818 4.71753 9.08097 4.93909 8.77241 5.19375C8.76646 5.1987 8.76038 5.20346 8.75403 5.20796L8.74095 5.21719C8.58204 5.32394 8.37276 5.29512 8.2514 5.13479C8.12171 4.96363 8.14141 4.7075 8.3023 4.57292L8.33614 4.54483C8.5363 4.37959 8.74359 4.22688 8.95697 4.08699C9.093 3.99782 9.23155 3.91385 9.37222 3.83522C10.4269 3.24602 11.6068 2.95584 12.8046 3.00546C14.0024 3.05508 15.1593 3.44206 16.1714 4.11687C16.5183 4.34817 16.8482 4.61327 17.1567 4.91023L17.1886 4.94103C17.3401 5.08854 17.3424 5.34558 17.2016 5.50555C17.0698 5.6554 16.859 5.66679 16.7078 5.54722L16.692 5.53411L16.678 5.52122C16.3876 5.24176 16.0761 4.99377 15.748 4.77928C14.8522 4.19356 13.8324 3.85778 12.7772 3.81405C11.7223 3.77036 10.6826 4.02082 9.74979 4.5308Z" fill="#D3490D"/>
<path d="M10.5205 6.78487C10.3381 6.92311 10.3169 7.20491 10.4591 7.39259C10.6012 7.58024 10.8525 7.60207 11.038 7.46877C11.593 7.07003 12.2472 6.86565 12.9145 6.88887C13.5818 6.91205 14.2233 7.1614 14.7545 7.59793C14.932 7.74383 15.1841 7.73947 15.3367 7.56208C15.4891 7.38465 15.484 7.10189 15.3096 6.95127C14.6331 6.36684 13.8038 6.03223 12.9396 6.0022C12.0754 5.97217 11.2287 6.24855 10.5205 6.78487Z" fill="#D3490D"/>
<path d="M15.6158 16.2C15.9897 16.2 16.2927 16.5358 16.2927 16.95V18.45C16.2927 18.8642 15.9897 19.2 15.6158 19.2C15.2419 19.2 14.9389 18.8642 14.9389 18.45V16.95C14.9389 16.5358 15.2419 16.2 15.6158 16.2Z" fill="#D3490D"/>
<path d="M19.0002 16.95C19.0002 16.5358 18.6972 16.2 18.3233 16.2C17.9494 16.2 17.6464 16.5358 17.6464 16.95V18.45C17.6464 18.8642 17.9494 19.2 18.3233 19.2C18.6972 19.2 19.0002 18.8642 19.0002 18.45V16.95Z" fill="#D3490D"/>
<path d="M21.7077 16.95C21.7077 16.5358 21.4047 16.2 21.0308 16.2C20.657 16.2 20.3539 16.5358 20.3539 16.95V18.45C20.3539 18.8642 20.657 19.2 21.0308 19.2C21.4047 19.2 21.7077 18.8642 21.7077 18.45V16.95Z" fill="#D3490D"/>
</g>
<defs>
<clipPath id="clip0_572_265">
<rect width="24" height="24" fill="white"/>
</clipPath>
</defs>
</svg>
