<svg width="24" height="24" viewBox="0 0 24 24" fill="none" xmlns="http://www.w3.org/2000/svg">
<path d="M19.0481 6.02821C19.1628 5.88469 19.3727 5.86076 19.511 5.98165C20.1973 6.58143 20.77 7.30123 21.2005 8.10668C21.6833 9.01003 21.9771 10.0022 22.0641 11.0228C22.1511 12.0434 22.0295 13.071 21.7065 14.043C21.4186 14.9097 20.976 15.716 20.4012 16.4233C20.2853 16.5659 20.0745 16.5778 19.9371 16.4558C19.7998 16.3338 19.7881 16.124 19.9034 15.981C20.4186 15.3415 20.8157 14.6143 21.0752 13.8333C21.3697 12.9469 21.4806 12.0099 21.4013 11.0793C21.3219 10.1487 21.054 9.24398 20.6137 8.42027C20.2258 7.69446 19.7113 7.04493 19.0953 6.50192C18.9574 6.38044 18.9335 6.17173 19.0481 6.02821Z" fill="#BABABA"/>
<path d="M17.8707 7.62607C17.9844 7.5061 18.1745 7.50053 18.2884 7.62034C19.2013 8.58044 19.7584 9.82827 19.8602 11.1553C19.962 12.4823 19.6018 13.8005 18.846 14.8887C18.7517 15.0245 18.563 15.048 18.4323 14.9467C18.3016 14.8455 18.2785 14.6579 18.372 14.5216C19.0373 13.5513 19.3537 12.3801 19.2633 11.2011C19.1728 10.0221 18.6815 8.91287 17.8759 8.05542C17.7627 7.93494 17.7569 7.74604 17.8707 7.62607Z" fill="#BABABA"/>
<path fill-rule="evenodd" clip-rule="evenodd" d="M12.1588 0.78506L4.96226 7.50187C4.86967 7.58828 4.74775 7.63634 4.6211 7.63634H1.5C1.22386 7.63634 1 7.8602 1 8.13634V16.4091C1 16.6852 1.22386 16.9091 1.5 16.9091H4.63167C4.75196 16.9091 4.86822 16.9524 4.95913 17.0312L12.1725 23.2828C12.4963 23.5635 13 23.3335 13 22.905V1.15059C13 0.713399 12.4785 0.486757 12.1588 0.78506ZM5.64458 8.23293L12 2.3012V21.81L5.61406 16.2755C5.34134 16.0392 4.99255 15.9091 4.63167 15.9091H2V8.63634H4.6211C5.00104 8.63634 5.36682 8.49216 5.64458 8.23293Z" fill="#BABABA"/>
<path d="M21.4013 11.0793C21.3253 10.1887 21.0767 9.32183 20.6696 8.52697C20.6513 8.49126 20.6327 8.45569 20.6137 8.42027C20.2258 7.69446 19.7113 7.04493 19.0953 6.50192C19.0879 6.4954 19.0808 6.48863 19.074 6.48162C18.9553 6.35822 18.9396 6.16402 19.0481 6.02821C19.1628 5.88469 19.3727 5.86076 19.511 5.98165L19.5352 6.00286C20.0073 6.41908 20.4252 6.89237 20.7792 7.41139C20.9317 7.63497 21.0724 7.86703 21.2005 8.10668L21.2034 8.11218C21.6845 9.01405 21.9773 10.0043 22.0641 11.0228C22.151 12.0413 22.03 13.0668 21.7085 14.0371L21.7065 14.043C21.6209 14.3009 21.5215 14.5534 21.4091 14.7996C21.148 15.371 20.8163 15.9082 20.4214 16.3983L20.4012 16.4233C20.2853 16.5659 20.0745 16.5778 19.9371 16.4558C19.8072 16.3403 19.7897 16.1463 19.8859 16.0046C19.8914 15.9965 19.8972 15.9886 19.9034 15.981C20.4186 15.3415 20.8157 14.6143 21.0752 13.8333C21.0879 13.7951 21.1002 13.7569 21.1122 13.7186C21.3789 12.8663 21.4772 11.9699 21.4013 11.0793Z" fill="#BABABA"/>
<path d="M19.1193 10.3246C18.9045 9.47816 18.4779 8.69643 17.8756 8.05542C17.8685 8.0478 17.8618 8.03991 17.8555 8.03178C17.7622 7.91132 17.7639 7.73845 17.8704 7.62607C17.9841 7.5061 18.1742 7.50054 18.2882 7.62034L18.312 7.64551C18.6644 8.02061 18.9629 8.43891 19.2017 8.88815C19.3939 9.24979 19.5474 9.63149 19.6592 10.0269C19.7627 10.393 19.8304 10.7708 19.8599 11.1553C19.8894 11.5398 19.8801 11.9235 19.8337 12.3012C19.7835 12.709 19.69 13.1096 19.5552 13.4963C19.3878 13.9768 19.1565 14.4357 18.8655 14.8602L18.8458 14.8887C18.7515 15.0245 18.5628 15.048 18.4321 14.9467C18.3096 14.8519 18.2816 14.6813 18.3554 14.5481C18.3604 14.5391 18.3658 14.5302 18.3717 14.5216C18.8691 13.7962 19.1715 12.9586 19.2547 12.0893C19.2828 11.7958 19.2859 11.4987 19.263 11.2011C19.2402 10.9035 19.1918 10.6103 19.1193 10.3246Z" fill="#BABABA"/>
<path d="M16.7665 9.62206C16.6453 9.48737 16.4363 9.49795 16.3142 9.63187C16.1921 9.7658 16.2035 9.97219 16.3215 10.1098C16.6744 10.5213 16.8956 11.0328 16.9513 11.5773C17.0071 12.1218 16.8942 12.6674 16.632 13.142C16.5444 13.3007 16.5751 13.5051 16.7218 13.6115C16.8685 13.7179 17.0753 13.6859 17.1667 13.5294C17.5215 12.9223 17.6764 12.2155 17.6042 11.5104C17.532 10.8053 17.237 10.1446 16.7665 9.62206Z" fill="#BABABA"/>
</svg>
